likes,title,missedIngredientCount,usedIngredientCount,missedIngredients,usedIngredients,image,imageType,aisle
212,20 Uses for Sprouts & Stir Fry with Sprouts,3,1,"cauliflower,cooked ham,garlic",alfalfa sprouts,https://spoonacular.com/recipeImages/482195-312x231.jpg,jpg,Produce
10,Apricot Shrub for Homemade Soda,1,2,vinegar,apricot,https://spoonacular.com/recipeImages/610983-312x231.jpg,jpg,Produce
7502,Quick and Easy Artichoke Dip,2,1,"mayonaise,parmesan cheese",artichokes,https://spoonacular.com/recipeImages/706049-312x231.jpg,jpg,Produce
1,Grilled Asparagus,0,1,,asparagus spears,https://spoonacular.com/recipeImages/1124034-312x231.jpg,jpg,Produce
1,Homemade Chili Bamboo Shoots,0,1,,bamboo shoots,https://spoonacular.com/recipeImages/1153929-312x231.jpg,jpg,Ethnic Foods
800,Slow Cooker Sesame Beef Noodle Bowls,2,1,"green onions,rice noodles",bean sprouts,https://spoonacular.com/recipeImages/489315-312x231.jpg,jpg,Produce
48,Beans with Toasted Garlic and Chili,2,1,"garlic,red chili",wax beans,https://spoonacular.com/recipeImages/539355-312x231.jpg,jpg,Produce
69,Oven Baked Beet Chips,0,1,,red beets,https://spoonacular.com/recipeImages/1003966-312x231.jpg,jpg,Produce
2,Endive Salad,1,2,juice of lemon,belgian endives,https://spoonacular.com/recipeImages/96841-312x231.png,png,Produce
275,Roasted Asparagus,1,1,asparagus,bell pepper,https://spoonacular.com/recipeImages/993417-312x231.jpeg,jpeg,Produce
194,Bitter Herb Cocktail,2,1,"gin,sparkling wine",bitter gourd,https://spoonacular.com/recipeImages/195895-312x231.jpg,jpg,Produce
290,Easy Napa Cabbage Slaw,2,1,"napa cabbage,seasoned rice vinegar",bok choy,https://spoonacular.com/recipeImages/763462-312x231.jpg,jpg,Produce
1,Boysenberry Syrup,2,1,"honey,white wine vinegar",boysenberries,https://spoonacular.com/recipeImages/635778-312x231.jpg,jpg,Produce;Frozen
28,Roasted Romanesco with Meyer Lemon Salsa,2,1,"quinoa,shallot",romanesco,https://spoonacular.com/recipeImages/626321-312x231.jpg,jpg,Produce
169,How To Roast Broccoli,0,1,,broccoli,https://spoonacular.com/recipeImages/986300-312x231.jpg,jpg,Produce
794,Roasted Brussels Sprouts,0,1,,brussels sprouts,https://spoonacular.com/recipeImages/946910-312x231.jpg,jpg,Produce
64,"cabbage coleslaw , how to make cabbage coleslaw",1,1,mayonnaise,cabbage,https://spoonacular.com/recipeImages/486745-312x231.jpg,jpg,Produce
58,Spiced Caramel Pears,2,1,"cardamom pods,ground ginger",pears,https://spoonacular.com/recipeImages/541688-312x231.jpg,jpg,Produce
694,Roasted Carrots,1,1,fresh dill,carrots,https://spoonacular.com/recipeImages/968871-312x231.jpg,jpg,Produce
214,Melon Agua Fresca,2,1,"honeydew melon,lime juice",musk melon,https://spoonacular.com/recipeImages/27759-312x231.jpg,jpg,Produce
451,Crispy Roasted Cauliflower,0,1,,cauliflower,https://spoonacular.com/recipeImages/1041434-312x231.jpg,jpg,Produce
0,Creamy Cranberry-Stuffed Celery,1,1,dried cranberries,celery,https://spoonacular.com/recipeImages/11859-312x231.jpg,jpg,Produce
0,Cheesy Chayote Bake,2,1,"Low Moisture Part-Skim Mozzarella Cheese,stuffing mix",chayotes,https://spoonacular.com/recipeImages/22662-312x231.jpg,jpg,Produce
38,Collard Greens,2,1,"chicken stock,red wine vinegar",collard greens,https://spoonacular.com/recipeImages/486063-312x231.jpg,jpg,Produce
0,Cucumbers and Cream Cheese,1,1,cream cheese,cucumber,https://spoonacular.com/recipeImages/1176863-312x231.jpg,jpg,Produce
1,Eggplant Dip (Salata de Vinete),1,1,onion,eggplants,https://spoonacular.com/recipeImages/1129809-312x231.jpg,jpg,Produce
40,"Red Endive with Dried Cranberries, Pecans, Feta and Arugula",2,1,"arugula leaves,cranberries",endive,https://spoonacular.com/recipeImages/516416-312x231.jpg,jpg,Produce
40,"Red Endive with Dried Cranberries, Pecans, Feta and Arugula",2,1,"arugula leaves,cranberries",endive,https://spoonacular.com/recipeImages/516416-312x231.jpg,jpg,Produce
0,Almond-Fennel Cooler,1,2,lemon juice,fennel,https://spoonacular.com/recipeImages/327999-312x231.jpg,jpg,Produce
1,How to Roast Garlic,0,1,,garlic,https://spoonacular.com/recipeImages/1101630-312x231.jpg,jpg,Produce
1,Roasted Green Beans,0,1,,green beans,https://spoonacular.com/recipeImages/1050435-312x231.jpg,jpg,Produce
5,Instant Pot Orange Chicken,1,1,chicken tenders,scallions,https://spoonacular.com/recipeImages/981808-312x231.jpg,jpg,Produce
0,Mixed Greens with Walnut-Fig Vinaigrette,2,1,"fig preserves,sherry vinegar",mixed salad greens,https://spoonacular.com/recipeImages/199508-312x231.jpg,jpg,Produce
98,Mazamorra Colombiana (Colombian Mazamorra),2,1,"guava,milk",hominy,https://spoonacular.com/recipeImages/227309-312x231.jpg,jpg,Canned and Jarred;Produce
214,Melon Agua Fresca,2,1,"honeydew melon,lime juice",musk melon,https://spoonacular.com/recipeImages/27759-312x231.jpg,jpg,Produce
10,The Perfect Burger,2,1,"ground beef chuck,hamburger buns",lettuce,https://spoonacular.com/recipeImages/98648-312x231.png,png,Produce
57,Roasted Sunchokes,2,1,"fresh rosemary,whole garlic",sunchokes,https://spoonacular.com/recipeImages/42844-312x231.jpg,jpg,Produce
2,Jicama Chips,2,1,"chili seasoning mix,juice of lime",jicama,https://spoonacular.com/recipeImages/120355-312x231.jpg,jpg,Produce
1,Best Baked Kale Chips Recipe,0,1,,kale,https://spoonacular.com/recipeImages/1106081-312x231.jpg,jpg,Produce
19,Kohlrabi & Carrots,3,1,"butter,carrots,nutmeg",kohlrabi,https://spoonacular.com/recipeImages/93420-312x231.jpg,jpg,Produce
243,Kumquat Marmalade,1,1,orange,kumquats,https://spoonacular.com/recipeImages/517530-312x231.jpg,jpg,Produce
224,Leeks Vinaigrette,2,1,"red wine vinegar,dijon mustard",leeks,https://spoonacular.com/recipeImages/246366-312x231.jpg,jpg,Produce
10,The Perfect Burger,2,1,"ground beef chuck,hamburger buns",lettuce,https://spoonacular.com/recipeImages/98648-312x231.png,png,Produce
36,Simple Southern Lima Beans: A perfect side for hearty Southern meals,2,1,"bacon,hot sauce",lima beans,https://spoonacular.com/recipeImages/514207-312x231.jpg,jpg,Pasta and Rice;Canned and Jarred
2,Loquat Pie,3,1,"allspice,cinnamon,ginger",loquats,https://spoonacular.com/recipeImages/650325-312x231.jpg,jpg,Produce
53,3-Ingredient Bacon Stuffed Mushrooms,2,1,"cooked bacon,feta cheese",button mushrooms,https://spoonacular.com/recipeImages/625019-312x231.jpg,jpg,Produce
234,Nectarine Frozen Yogurt,2,1,"greek yogurt,juice of lemon",nectarines,https://spoonacular.com/recipeImages/557445-312x231.jpg,jpg,Produce
1,How To Cook Okra,0,1,,okra,https://spoonacular.com/recipeImages/1131160-312x231.jpg,jpg,Produce
7,Potatoes & Chorizo,1,1,red potatoes,onion,https://spoonacular.com/recipeImages/44053-312x231.jpg,jpg,Produce
1,Rooty Toot Toot: Sweet and Sticky Cider-Roasted Parsnips,0,1,,parsnips,https://spoonacular.com/recipeImages/1149150-312x231.jpg,jpg,Produce
28,Brown Butter Peas with Mint,1,1,fresh mint leaves,peas,https://spoonacular.com/recipeImages/996315-312x231.jpg,jpg,Produce
1,Roasted Red Peppers,1,1,garlic cloves,peppers,https://spoonacular.com/recipeImages/1138768-312x231.jpg,jpg,Produce
3,Seasoned Salt Roasted Pumpkin Seeds,0,1,,pumpkin,https://spoonacular.com/recipeImages/1042605-312x231.jpg,jpg,Produce
142,slow cooker pear-quince butter,2,1,"bartlett pears,vanilla bean",quinces,https://spoonacular.com/recipeImages/615512-312x231.jpg,jpg,Produce
46,Grilled Radicchio With Balsamic Vinegar,2,1,"crema,orange",radicchio,https://spoonacular.com/recipeImages/18741-312x231.jpg,jpg,Produce
1,Quick Pickled Radish Recipe - How to Pickle Radishes,1,1,apple cider vinegar,radishes,https://spoonacular.com/recipeImages/1111146-312x231.jpg,jpg,Produce
94,muesli (cold oats),2,1,"old fashioned oats,walnuts",raisins,https://spoonacular.com/recipeImages/591408-312x231.jpg,jpg,Dried Fruits;Produce;Baking
1645,Baby Romaine and Hot Smoked Salmon Salad,2,1,"baby arugula leaves,caesar dressing",red cabbage,https://spoonacular.com/recipeImages/775949-312x231.jpg,jpg,Produce
30,Rhubarb Sauce + step by step VIDEO,1,1,corn starch,rhubarb,https://spoonacular.com/recipeImages/1006013-312x231.jpg,jpg,Produce
191,"Caesar Romaine ""Wedge"" Salad",2,1,"bacon,parmesan cheese",romaine lettuce,https://spoonacular.com/recipeImages/577067-312x231.jpg,jpg,Produce
1152,Roasted Rosemary Brussels and Rutabaga,2,1,"brussels sprouts,fresh rosemary",rutabaga,https://spoonacular.com/recipeImages/509208-312x231.jpg,jpg,Produce
1,Crispy Fried Shallots,0,1,,shallots,https://spoonacular.com/recipeImages/1082510-312x231.jpg,jpg,Produce
49,Garlic Sesame Snow Peas,2,1,"garlic clove,sesame seeds",snow peas,https://spoonacular.com/recipeImages/519632-312x231.jpg,jpg,Produce
193,Real Men Cook: Sautéed Garlic Spinach,2,1,"garlic,red pepper flakes",spinach,https://spoonacular.com/recipeImages/574789-312x231.jpg,jpg,Produce
9,Stir-fried Soybean Sprouts,2,1,"cloves garlic,green onions",sprouts,https://spoonacular.com/recipeImages/37341-312x231.jpg,jpg,Produce
1,Roasted Green Beans,0,1,,green beans,https://spoonacular.com/recipeImages/1050435-312x231.jpg,jpg,Produce
14,Tangelo Sorbet,2,1,"grand marnier,tangelo juice",tangelo,https://spoonacular.com/recipeImages/596681-312x231.jpg,jpg,Produce
0,2 Ingredient Instant Pot Applesauce,0,1,,apples,https://spoonacular.com/recipeImages/933310-312x231.jpg,jpg,Produce
10,Apricot Shrub for Homemade Soda,1,2,vinegar,apricot,https://spoonacular.com/recipeImages/610983-312x231.jpg,jpg,Produce
13,Blender Peanut Butter with Dried Tart Cherries,1,1,dry roasted peanuts,cherries,https://spoonacular.com/recipeImages/986634-312x231.jpg,jpg,Produce
63,Fig Jam,2,1,"lime juice,vanilla extract",fresh figs,https://spoonacular.com/recipeImages/57471-312x231.jpg,jpg,Produce
1,Homemade Grape Juice (no juicer required),0,1,,red grapes,https://spoonacular.com/recipeImages/1113046-312x231.jpg,jpg,Produce
58,Spiced Caramel Pears,2,1,"cardamom pods,ground ginger",pears,https://spoonacular.com/recipeImages/541688-312x231.jpg,jpg,Produce
0,Avocado,0,1,,avocado,https://spoonacular.com/recipeImages/1176847-312x231.jpg,jpg,Produce