name,energy,cholesterol,fiber,potassium,protein,saturatedFat,sodium,sugar,carbonhydrate,totalFat,servingUnit,servingWeight
Alfalfa Sprouts,7.59,0,0.63,26.07,1.32,0.02,1.98,0.07,0.69,0.23,cup,33
Apricot,16.8,0,0.7,90.65,0.49,0.01,0.35,3.23,3.89,0.14,apricot,35
Artichoke,63.6,0,6.84,343.2,3.47,0.09,72,1.19,14.34,0.41,"artichoke, medium",120
Asparagus,16.5,0,1.5,168,1.8,0.04,10.5,0.98,3.08,0.17,spears,75
Bamboo Shoots,24.89,0,1.83,104.8,2.25,0.12,9.17,2.48,4.22,0.52,cup,131
Bean Sprouts,26.04,0,0.99,125.24,2.52,0.03,12.4,3.52,5.2,0.11,cup,124
Beans,238.76,0,10.41,568.96,12.07,0.18,871.22,20.22,53.7,0.94,cup,254
Beets,22,0,1,152.5,0.84,0.01,38.5,3.98,4.98,0.09,beet,50
Belgian Endive,9.01,0,1.64,111.83,0.48,0.01,1.06,,2.12,0.05,head,53
Bell Peppers,31.54,0,1.25,206.72,1.08,0.03,2.28,2.88,7.49,0.23,pepper,114
Bitter Melon,23.56,0,2.48,395.56,1.04,0.02,7.44,2.42,5.36,0.22,"cup (1/2"" pieces)",124
Bok Choy,20.4,0,1.7,630.7,2.65,0.04,57.8,1.41,3.03,0.27,"cup, shredded",170
Boysenberries,66,0,7,183.48,1.45,0.01,1.32,9.09,16.09,0.34,cup,132
Broccoflower,39.68,0,4.09,344.72,3.77,0.05,28.52,3.87,7.79,0.38,"cup, pieces",124
Broccoli,12.95,0,1.22,108.41,0.88,0.03,15.17,0.51,2.66,0.15,"spear (about 5"" long)",37
Brussels Sprouts,60.48,0,4.37,532.56,4.28,0.17,35.28,2.92,11.93,0.84,sprouts,168
Cabbage,17.25,0,1.43,147,0.95,0,6,2.09,4.13,0.05,"cup, shredded",75
Cactus Pear,42.23,0,3.71,226.6,0.75,0.07,5.15,,9.86,0.53,fruit without refuse,103
Carrots,16.1,0,1.38,108.1,0.35,0.01,26.68,1.59,3.78,0.08,carrot,46
Casaba Melon,60.18,0,1.59,472.59,1.49,0.09,28.32,13.91,14.44,0.34,"cup, balls",177
Cauliflower,132.25,0,13.23,816.5,10.58,0.4,86.25,11.96,23.63,2.59,medium head,575
Celery,6.75,0,0.6,106.5,0.31,0.02,34.13,0.89,1.5,0.06,stalk,37.5
Chayote,38.4,0,4.48,276.8,0.99,0,1.6,3.02,8.14,0.77,"cup (1"" pieces)",160
Cherimoya,176.25,0,7.05,674.45,3.69,0.55,16.45,30.24,41.62,1.6,fruit without skin and seeds,235
Collard Greens,62.7,0,7.6,222.3,5.15,0.09,28.5,0.76,10.74,1.37,"cup, chopped",190
Corn,98.88,0,2.47,224.54,3.51,0.2,1.03,4.68,21.61,1.55,ear medium,103
Cucumber,30.15,0,1,295.47,1.31,0.07,4.02,3.36,7.3,0.22,medium,201
Eggplant,198.1,0,14.15,696.18,4.7,0.25,5.66,18.11,49.41,1.3,medium eggplant,566
Endive,9.01,0,1.64,111.83,0.48,0.01,1.06,,2.12,0.05,head,53
Escarole,28.5,0,4.2,367.5,1.73,0.06,28.5,0.35,4.61,0.27,cup,150
Fennel,26.97,0,2.7,360.18,1.08,0.08,45.24,3.42,6.35,0.17,"cup, sliced",87
Garlic,4.47,0,0.06,12.03,0.19,0,0.51,0.03,0.99,0.02,clove,3
Green Beans,2.24,0,0.2,9.34,0.12,0,0.06,0.23,0.5,0.02,bean,6.4
Green Onions,4.8,0,0.39,41.4,0.27,0,2.4,0.35,1.1,0.03,"medium (4-1/8"" long)",15
Greens,62.7,0,7.6,222.3,5.15,0.09,28.5,0.76,10.74,1.37,"cup, chopped",190
Hominy,118.8,0,4.13,14.85,2.44,0.2,569.25,3,23.53,1.45,cup,165
Horned Melon,60.18,0,1.59,472.59,1.49,0.09,28.32,13.91,14.44,0.34,"cup, balls",177
Iceberg Lettuce,7.98,0,0.68,80.37,0.51,0.01,5.7,1.12,1.69,0.08,"cup, chopped",57
Jerusalem Artichoke,109.5,0,2.4,643.5,3,0,6,14.4,26.16,0.02,cup slices,150
Jicama,45.6,0,5.88,180,0.86,0.03,4.8,2.16,10.58,0.11,cup slices,120
Kale,36.4,0,2.6,296.4,2.47,0.07,29.9,1.63,7.32,0.52,"cup, chopped",130
Kohlrabi,36.45,0,4.86,472.5,2.3,0.02,27,3.51,8.37,0.14,cup,135
Kumquat,13.49,0,1.23,35.34,0.36,0.02,1.9,1.78,3.02,0.16,fruit without refuse,19
Leeks,38.44,0,1.24,107.88,1,0.03,12.4,2.62,9.45,0.25,leek,124
Lettuce,15.98,0,1.97,232.18,1.16,0.04,7.52,1.12,3.09,0.28,cups shredded,94
Lima Beans,216.2,0,13.16,955.04,14.66,0.17,3.76,5.45,39.25,0.71,cup,188
Loquat,7.52,0,0.27,42.56,0.07,0.01,0.16,,1.94,0.03,medium,16
Malanga,187.44,0,6.73,638.88,0.69,0.03,19.8,0.65,45.67,0.15,"cup, sliced",132
Mushrooms,3.36,0,0.26,42.72,0.26,0.01,0.24,0.28,0.63,0.06,mushroom,12
Nectarines,68.64,0,2.65,313.56,1.65,0.04,0,12.31,16.46,0.5,"large (2-3/4"" dia)",156
Okra,17.6,0,2,108,1.5,0.04,4.8,1.92,3.61,0.17,cup slices,80
Onion,41.36,0,1.32,156.04,1.28,0.03,2.82,4.45,9.54,0.18,medium,94
Parsnip,69.58,0,3.53,359.66,1.29,0.05,9.8,4.7,16.67,0.29,medium,98
Peas,134.4,0,8.8,433.6,8.58,0.06,4.8,9.49,25.01,0.35,cup,160
Peppers,31.54,0,1.25,206.72,1.08,0.03,2.28,2.88,7.49,0.23,pepper,114
Potatoes,160.89,0,3.81,925.55,4.33,0.06,17.3,2.04,36.59,0.22,potato medium,173
Pumpkin,49,0,2.7,563.5,1.76,0.09,2.45,5.1,12.01,0.17,"cup, mashed",245
Quince,52.44,0,1.75,181.24,0.37,0.01,3.68,,14.08,0.09,fruit without refuse,92
Radicchio,9.2,0,0.36,120.8,0.57,0.02,8.8,0.24,1.79,0.1,"cup, shredded",40
Radishes,0.72,0,0.07,10.49,0.03,0,1.76,0.08,0.15,0,"medium (3/4"" to 1"" dia)",4.5
Raisins,128.57,0,1.59,322.07,1.32,0.02,4.73,25.45,34.05,0.2,small box (1.5 oz),43
Red Cabbage,43.5,0,3.9,393,2.27,0.02,42,4.98,10.41,0.14,"cup, shredded",150
Rhubarb,10.71,0,0.92,146.88,0.46,0.03,2.04,0.56,2.32,0.1,stalk,51
Romaine Lettuce,106.42,0,13.15,1546.22,7.7,0.24,50.08,7.45,20.6,1.88,head,626
Rutabaga,51.8,0,3.22,427,1.51,0.04,16.8,6.24,12.07,0.22,"cup, cubes",140
Shallots,30.62,0,1.36,142.05,1.06,0.01,5.1,3.35,7.15,0.04,shallot,42.53
Snow Peas,67.2,0,4.48,384,5.23,0.07,6.4,6.38,11.28,0.37,cup,160
Spinach,41.4,0,4.32,838.8,5.35,0.08,126,0.77,6.75,0.47,cup,180
Sprouts,7.59,0,0.63,26.07,1.32,0.02,1.98,0.07,0.69,0.23,cup,33
Squash,41.4,0,1.98,318.6,1.87,0.12,1.8,4.46,6.82,0.7,"cup, sliced",180
String Beans,2.24,0,0.2,9.34,0.12,0,0.06,0.23,0.5,0.02,bean,6.4
Sweet Potato,102.6,0,3.76,541.5,2.29,0.06,41.04,7.39,23.61,0.17,"medium (2"" dia, 5"" long, raw)",114